Time(s),STM32 Temperature,Ambient (MCP9808) Temperature
1,22.32454,20.375
2,22.05506,20.375
3,22.57853,20.375
4,22.57853,20.375
5,22.70526,20.375
6,22.90385,20.375
7,22.90385,20.4375
8,22.90385,20.375
9,22.57853,20.375
10,22.90385,20.375
11,23.22917,20.375
12,22.90385,20.375
13,22.90385,20.375
14,23.22917,20.4375
15,23.22917,20.375
16,23.22917,20.375
17,23.22917,20.375
18,22.90385,20.375
19,22.70526,20.375
20,23.22917,20.375
21,22.90385,20.375
22,22.90385,20.375
23,22.70526,20.375
24,23.42824,20.375
25,23.03036,20.375
26,23.22917,20.375
27,23.22917,20.375
28,23.35546,20.375
29,23.22917,20.375
30,23.55449,20.375
31,23.22917,20.375
32,23.35546,20.375
33,23.55449,20.375
34,22.90385,20.375
35,23.22917,20.375
36,22.90385,20.4375
37,23.35546,20.375
38,23.22917,20.375
39,23.55449,20.4375
40,23.55449,20.375
41,22.90385,20.4375
42,22.90385,20.375
43,23.55449,20.4375
44,23.35546,20.4375
45,23.55449,20.375
46,23.55449,20.4375
47,23.22917,20.375
48,23.55449,20.4375
49,23.22917,20.375
50,23.55449,20.4375
51,23.35546,20.4375
52,23.35546,20.4375
53,23.55449,20.4375
54,23.55449,20.4375
55,23.22917,20.4375
56,23.03036,20.4375
57,23.22917,20.4375
58,23.55449,20.4375
59,23.55449,20.4375
60,23.8798,20.4375
61,23.35546,20.375
62,23.55449,20.4375
63,23.8798,20.5
64,23.35546,20.5
65,23.55449,20.4375
66,23.55449,20.5
67,23.22917,20.5
68,23.68056,20.4375
69,23.8798,20.4375
70,23.55449,20.4375
71,23.55449,20.5
72,23.55449,20.5
73,23.55449,20.5
74,23.55449,20.5
75,23.35546,20.5
76,23.8798,20.5
77,23.55449,20.5
78,23.22917,20.5
79,23.8798,20.5
80,23.8798,20.5
81,23.42824,20.5
82,23.35546,20.5
83,23.55449,20.5
84.00001,23.8798,20.5625
85,23.8798,20.5
86,23.22917,20.5
87,23.35546,20.5625
88,23.8798,20.5
89.00001,23.68056,20.5625
90,23.75377,20.5625
91,23.55449,20.5625
92,23.68056,20.5625
93,24.20512,20.5625
94.00001,23.8798,20.5625
95,24.0793,20.5625
96,23.8798,20.5625
97,23.68056,20.5625
98,23.8798,20.5625
99.00001,23.8798,20.5625
100,24.00567,20.5625
101,23.68056,20.5625
102,23.8798,20.5625
103,23.55449,20.5625
104,23.8798,20.5625
105,23.8798,20.5625
106,23.75377,20.5625
107,23.55449,20.5625
108,24.20512,20.625
109,23.8798,20.5625
110,23.8798,20.5625
111,23.55449,20.5625
112,23.8798,20.625
113,23.8798,20.625
114,23.55449,20.625
115,23.8798,20.625
116,24.20512,20.625
117,23.8798,20.625
118,23.55449,20.625
119,23.8798,20.625
120,24.20512,20.625
121,23.8798,20.5625
122,24.00567,20.625
123,24.53044,20.625
124,23.68056,20.625
125,23.68056,20.625
126,23.75377,20.6875
127,24.53044,20.625
128,24.20512,20.6875
129,23.55449,20.625
130,23.8798,20.625
131,23.8798,20.6875
132,24.40484,20.625
133,23.8798,20.625
134,24.20512,20.625
135,23.8798,20.6875
136,23.55449,20.625
137,23.8798,20.625
138,23.8798,20.625
139,24.00567,20.6875
140,24.20512,20.625
141,23.8798,20.625
142,23.55449,20.625
143,24.20512,20.625
144,23.68056,20.625
145,23.8798,20.625
146,23.8798,20.625
147,23.35546,20.6875
148,24.20512,20.625
149,24.20512,20.625
150,23.8798,20.625
151,24.00567,20.6875
152,23.35546,20.6875
153,24.20512,20.625
154,24.20512,20.625
155,24.40484,20.625
156,24.00567,20.6875
157,23.68056,20.6875
158,23.8798,20.6875
159,23.68056,20.625
160,24.53044,20.625
161,23.8798,20.625
162,23.68056,20.625
163,23.68056,20.625
164,23.8798,20.625
165,24.20512,20.625
166,24.20512,20.75
167,23.68056,20.6875
168,24.33077,20.6875
169,24.00567,20.6875
170,23.8798,20.6875
171,24.40484,20.75
172,23.8798,20.6875
173,24.20512,20.6875
174,23.55449,20.75
175,24.00567,20.6875
176,23.8798,20.6875
177,23.35546,20.625
178,24.20512,20.6875
179,24.20512,20.6875
180,24.20512,20.6875
181,23.68056,20.6875
182,24.20512,20.75
183,24.20512,20.6875
184,24.20512,20.75
185,24.20512,20.6875
186,24.00567,20.6875
187,24.20512,20.6875
188,24.40484,20.6875
189,24.20512,20.6875
190,24.00567,20.75
191,24.20512,20.75
192,24.53044,20.6875
193,23.8798,20.6875
194,24.20512,20.6875
195,24.00567,20.6875
196,24.20512,20.6875
197,24.20512,20.6875
198,23.8798,20.6875
199,24.20512,20.75
200,24.20512,20.6875
201,24.20512,20.6875
202,24.00567,20.6875
203,24.40484,20.6875
204,24.00567,20.6875
205,24.20512,20.6875
206,24.20512,20.6875
207,24.20512,20.6875
208,24.20512,20.75
209,23.8798,20.6875
210,24.20512,20.75
211,23.8798,20.6875
212,24.20512,20.6875
213,24.20512,20.6875
214,23.8798,20.75
215,24.20512,20.6875
216,24.00567,20.75
217,24.53044,20.75
218,24.20512,20.6875
219,24.20512,20.6875
220,24.00567,20.6875
221,23.68056,20.75
222,24.53044,20.6875
223,24.20512,20.75
224,24.20512,20.6875
225,24.20512,20.6875
226,24.53044,20.6875
227,24.00567,20.6875
228,24.20512,20.75
229,24.20512,20.6875
230,24.20512,20.75
231,24.20512,20.6875
232,24.20512,20.75
233,24.20512,20.6875
234,24.20512,20.75
235,24.00567,20.75
236,24.53044,20.75
237,24.00567,20.75
238,24.20512,20.6875
239,24.00567,20.75
240,24.20512,20.75
241,24.20512,20.75
242,24.20512,20.75
243,23.68056,20.75
244,24.33077,20.75
245,24.20512,20.75
246,24.53044,20.6875
247,24.20512,20.75
248,24.53044,20.75
249,24.53044,20.75
250,24.20512,20.75
251,24.20512,20.6875
252,24.20512,20.75
253,24.20512,20.75
254,24.20512,20.75
255,24.20512,20.75
256,24.20512,20.75
257,24.20512,20.75
258,24.20512,20.75
259,24.20512,20.75
260,24.00567,20.75
261,24.20512,20.8125
262,24.40484,20.6875
263,24.20512,20.75
264,24.20512,20.75
265,24.53044,20.75
266,24.00567,20.75
267,24.00567,20.75
